<svg width="17" height="11" viewBox="0 0 17 11" fill="none" xmlns="http://www.w3.org/2000/svg">
<path d="M10.625 5.5C10.625 6.63713 9.67158 7.5625 8.5 7.5625C7.32842 7.5625 6.375 6.63713 6.375 5.5C6.375 4.36287 7.32842 3.4375 8.5 3.4375C9.67158 3.4375 10.625 4.36287 10.625 5.5ZM17 5.19131C17 5.19131 13.9882 11 8.51062 11C3.42479 11 0 5.19131 0 5.19131C0 5.19131 3.14925 0 8.51062 0C13.9605 0 17 5.19131 17 5.19131ZM12.0417 5.5C12.0417 3.60456 10.4529 2.0625 8.5 2.0625C6.54712 2.0625 4.95833 3.60456 4.95833 5.5C4.95833 7.39544 6.54712 8.9375 8.5 8.9375C10.4529 8.9375 12.0417 7.39544 12.0417 5.5Z" fill="#A3A0A0"/>
</svg>
